Register/simulation/qsim/Register.msim.vcd
$comment
	File created using the following command:
		vcd file Register.msim.vcd -direction
$end
$date
	Thu Dec 03 15:03:48 2020
$end
$version
	ModelSim Version 10.1d
$end
$timescale
	1ps
$end
$scope module LatchDiagram_vlg_vec_tst $end
$var reg 8 ! A [7:0] $end
$var reg 1 " Clock $end
$var reg 1 # Resetn $end
$var wire 1 $ Q [7] $end
$var wire 1 % Q [6] $end
$var wire 1 & Q [5] $end
$var wire 1 ' Q [4] $end
$var wire 1 ( Q [3] $end
$var wire 1 ) Q [2] $end
$var wire 1 * Q [1] $end
$var wire 1 + Q [0] $end
$var wire 1 , sampler $end
$scope module i1 $end
$var wire 1 - gnd $end
$var wire 1 . vcc $end
$var wire 1 / unknown $end
$var tri1 1 0 devclrn $end
$var tri1 1 1 devpor $end
$var tri1 1 2 devoe $end
$var wire 1 3 Q[7]~output_o $end
$var wire 1 4 Q[6]~output_o $end
$var wire 1 5 Q[5]~output_o $end
$var wire 1 6 Q[4]~output_o $end
$var wire 1 7 Q[3]~output_o $end
$var wire 1 8 Q[2]~output_o $end
$var wire 1 9 Q[1]~output_o $end
$var wire 1 : Q[0]~output_o $end
$var wire 1 ; Clock~input_o $end
$var wire 1 < Clock~inputclkctrl_outclk $end
$var wire 1 = A[7]~input_o $end
$var wire 1 > inst|Q[7]~feeder_combout $end
$var wire 1 ? Resetn~input_o $end
$var wire 1 @ Resetn~inputclkctrl_outclk $end
$var wire 1 A A[6]~input_o $end
$var wire 1 B inst|Q[6]~feeder_combout $end
$var wire 1 C A[5]~input_o $end
$var wire 1 D inst|Q[5]~feeder_combout $end
$var wire 1 E A[4]~input_o $end
$var wire 1 F A[3]~input_o $end
$var wire 1 G inst|Q[3]~feeder_combout $end
$var wire 1 H A[2]~input_o $end
$var wire 1 I inst|Q[2]~feeder_combout $end
$var wire 1 J A[1]~input_o $end
$var wire 1 K A[0]~input_o $end
$var wire 1 L inst|Q[0]~feeder_combout $end
$var wire 1 M inst|Q [7] $end
$var wire 1 N inst|Q [6] $end
$var wire 1 O inst|Q [5] $end
$var wire 1 P inst|Q [4] $end
$var wire 1 Q inst|Q [3] $end
$var wire 1 R inst|Q [2] $end
$var wire 1 S inst|Q [1] $end
$var wire 1 T inst|Q [0] $end
$upscope $end
$upscope $end
$enddefinitions $end
#0
$dumpvars
b110110 !
1"
0#
0+
0*
0)
0(
0'
0&
0%
0$
x,
0-
1.
x/
10
11
12
03
04
05
06
07
08
09
0:
1;
1<
0=
0>
0?
0@
0A
0B
1C
1D
1E
0F
0G
1H
1I
1J
0K
0L
0T
0S
0R
0Q
0P
0O
0N
0M
$end
#40000
0"
0;
0<
0,
#80000
1"
1;
1<
1,
#120000
0"
0;
0<
0,
#160000
1"
1;
1<
1,
#200000
0"
0;
0<
0,
#240000
1"
1;
1<
1,
#280000
0"
0;
0<
0,
#320000
1"
1;
1<
1,
#360000
0"
0;
0<
0,
#400000
1"
1;
1<
1,
#440000
0"
0;
0<
0,
#480000
1"
1;
1<
1,
#520000
0"
0;
0<
0,
#560000
1"
1;
1<
1,
#600000
0"
0;
0<
0,
#640000
1"
1;
1<
1,
#680000
0"
0;
0<
0,
#720000
1"
1;
1<
1,
#760000
0"
0;
0<
0,
#800000
1"
1;
1<
1,
#840000
0"
0;
0<
0,
#880000
1"
1;
1<
1,
#920000
0"
0;
0<
0,
#960000
1"
1;
1<
1,
