Problem_2/simulation/qsim/Problem_2.msim.vcd
$comment
	File created using the following command:
		vcd file Problem_2.msim.vcd -direction
$end
$date
	Mon Dec 07 12:05:22 2020
$end
$version
	ModelSim Version 10.1d
$end
$timescale
	1ps
$end
$scope module Problem_2_vlg_vec_tst $end
$var reg 8 ! A [7:0] $end
$var reg 8 " B [7:0] $end
$var reg 1 # Clock $end
$var reg 1 $ data_in $end
$var reg 1 % Enable_decode $end
$var reg 1 & FSM_reset $end
$var reg 1 ' Reset_A $end
$var reg 1 ( Reset_B $end
$var wire 1 ) R_FIrst_Four [0] $end
$var wire 1 * R_FIrst_Four [1] $end
$var wire 1 + R_FIrst_Four [2] $end
$var wire 1 , R_FIrst_Four [3] $end
$var wire 1 - R_FIrst_Four [4] $end
$var wire 1 . R_FIrst_Four [5] $end
$var wire 1 / R_FIrst_Four [6] $end
$var wire 1 0 R_Last_Four [0] $end
$var wire 1 1 R_Last_Four [1] $end
$var wire 1 2 R_Last_Four [2] $end
$var wire 1 3 R_Last_Four [3] $end
$var wire 1 4 R_Last_Four [4] $end
$var wire 1 5 R_Last_Four [5] $end
$var wire 1 6 R_Last_Four [6] $end
$var wire 1 7 SIgn [0] $end
$var wire 1 8 SIgn [1] $end
$var wire 1 9 SIgn [2] $end
$var wire 1 : SIgn [3] $end
$var wire 1 ; SIgn [4] $end
$var wire 1 < SIgn [5] $end
$var wire 1 = SIgn [6] $end
$var wire 1 > Student_ID [0] $end
$var wire 1 ? Student_ID [1] $end
$var wire 1 @ Student_ID [2] $end
$var wire 1 A Student_ID [3] $end
$var wire 1 B Student_ID [4] $end
$var wire 1 C Student_ID [5] $end
$var wire 1 D Student_ID [6] $end
$var wire 1 E sampler $end
$scope module i1 $end
$var wire 1 F gnd $end
$var wire 1 G vcc $end
$var wire 1 H unknown $end
$var tri1 1 I devclrn $end
$var tri1 1 J devpor $end
$var tri1 1 K devoe $end
$var wire 1 L inst1|Add1~0_combout $end
$var wire 1 M inst1|Add3~0_combout $end
$var wire 1 N inst1|Add2~2_combout $end
$var wire 1 O inst1|Add0~2_combout $end
$var wire 1 P inst1|Add0~4_combout $end
$var wire 1 Q inst1|Add2~4_combout $end
$var wire 1 R inst1|Add3~6_combout $end
$var wire 1 S inst1|Add4~6_combout $end
$var wire 1 T inst1|Add0~8_combout $end
$var wire 1 U inst1|Add3~10_combout $end
$var wire 1 V inst1|Add1~10_combout $end
$var wire 1 W inst1|Add0~12_combout $end
$var wire 1 X inst1|Add3~13 $end
$var wire 1 Y inst1|Add3~14_combout $end
$var wire 1 Z inst1|Result[2]~2_combout $end
$var wire 1 [ R_FIrst_Four[0]~output_o $end
$var wire 1 \ R_FIrst_Four[1]~output_o $end
$var wire 1 ] R_FIrst_Four[2]~output_o $end
$var wire 1 ^ R_FIrst_Four[3]~output_o $end
$var wire 1 _ R_FIrst_Four[4]~output_o $end
$var wire 1 ` R_FIrst_Four[5]~output_o $end
$var wire 1 a R_FIrst_Four[6]~output_o $end
$var wire 1 b R_Last_Four[0]~output_o $end
$var wire 1 c R_Last_Four[1]~output_o $end
$var wire 1 d R_Last_Four[2]~output_o $end
$var wire 1 e R_Last_Four[3]~output_o $end
$var wire 1 f R_Last_Four[4]~output_o $end
$var wire 1 g R_Last_Four[5]~output_o $end
$var wire 1 h R_Last_Four[6]~output_o $end
$var wire 1 i SIgn[0]~output_o $end
$var wire 1 j SIgn[1]~output_o $end
$var wire 1 k SIgn[2]~output_o $end
$var wire 1 l SIgn[3]~output_o $end
$var wire 1 m SIgn[4]~output_o $end
$var wire 1 n SIgn[5]~output_o $end
$var wire 1 o SIgn[6]~output_o $end
$var wire 1 p Student_ID[0]~output_o $end
$var wire 1 q Student_ID[1]~output_o $end
$var wire 1 r Student_ID[2]~output_o $end
$var wire 1 s Student_ID[3]~output_o $end
$var wire 1 t Student_ID[4]~output_o $end
$var wire 1 u Student_ID[5]~output_o $end
$var wire 1 v Student_ID[6]~output_o $end
$var wire 1 w A[1]~input_o $end
$var wire 1 x Reset_A~input_o $end
$var wire 1 y Reset_A~inputclkctrl_outclk $end
$var wire 1 z inst1|Add4~1 $end
$var wire 1 { inst1|Add4~2_combout $end
$var wire 1 | B[1]~input_o $end
$var wire 1 } Reset_B~input_o $end
$var wire 1 ~ Reset_B~inputclkctrl_outclk $end
$var wire 1 !! FSM_reset~input_o $end
$var wire 1 "! FSM_reset~inputclkctrl_outclk $end
$var wire 1 #! data_in~input_o $end
$var wire 1 $! inst3|yfsm.s4~q $end
$var wire 1 %! inst3|yfsm.s5~q $end
$var wire 1 &! inst3|yfsm.s6~q $end
$var wire 1 '! inst3|yfsm.s7~q $end
$var wire 1 (! inst3|yfsm.s8~q $end
$var wire 1 )! inst3|yfsm.s0~0_combout $end
$var wire 1 *! inst3|yfsm.s0~q $end
$var wire 1 +! inst3|yfsm.s1~0_combout $end
$var wire 1 ,! inst3|yfsm.s1~q $end
$var wire 1 -! inst3|yfsm.s2~q $end
$var wire 1 .! inst3|yfsm.s3~q $end
$var wire 1 /! inst3|WideOr14~0_combout $end
$var wire 1 0! A[6]~input_o $end
$var wire 1 1! B[0]~input_o $end
$var wire 1 2! inst1|Add3~1 $end
$var wire 1 3! inst1|Add3~2_combout $end
$var wire 1 4! inst3|WideOr15~combout $end
$var wire 1 5! inst3|WideOr13~0_combout $end
$var wire 1 6! inst1|Equal0~0_combout $end
$var wire 1 7! A[0]~input_o $end
$var wire 1 8! inst1|Add1~1 $end
$var wire 1 9! inst1|Add1~2_combout $end
$var wire 1 :! B[7]~input_o $end
$var wire 1 ;! B[5]~input_o $end
$var wire 1 <! A[4]~input_o $end
$var wire 1 =! B[3]~input_o $end
$var wire 1 >! A[2]~input_o $end
$var wire 1 ?! inst1|LessThan0~1_cout $end
$var wire 1 @! inst1|LessThan0~3_cout $end
$var wire 1 A! inst1|LessThan0~5_cout $end
$var wire 1 B! inst1|LessThan0~7_cout $end
$var wire 1 C! inst1|LessThan0~9_cout $end
$var wire 1 D! inst1|LessThan0~11_cout $end
$var wire 1 E! inst1|LessThan0~13_cout $end
$var wire 1 F! inst1|LessThan0~14_combout $end
$var wire 1 G! inst1|Result[3]~1_combout $end
$var wire 1 H! inst1|Selector6~0_combout $end
$var wire 1 I! inst1|Selector6~1_combout $end
$var wire 1 J! inst1|Selector6~2_combout $end
$var wire 1 K! inst1|Selector6~3_combout $end
$var wire 1 L! inst1|Result[1]~feeder_combout $end
$var wire 1 M! inst|Q[1]~_wirecell_combout $end
$var wire 1 N! Enable_decode~input_o $end
$var wire 1 O! inst1|Result[3]~3_combout $end
$var wire 1 P! inst1|Add4~0_combout $end
$var wire 1 Q! A[7]~input_o $end
$var wire 1 R! inst1|Selector7~0_combout $end
$var wire 1 S! inst1|Add0~0_combout $end
$var wire 1 T! inst1|Selector7~1_combout $end
$var wire 1 U! inst1|Selector7~2_combout $end
$var wire 1 V! inst1|Selector7~3_combout $end
$var wire 1 W! inst1|Result[0]~feeder_combout $end
$var wire 1 X! inst|Q[0]~_wirecell_combout $end
$var wire 1 Y! inst1|Result[3]~5_combout $end
$var wire 1 Z! inst1|Result[2]~0_combout $end
$var wire 1 [! inst1|Result[3]~4_combout $end
$var wire 1 \! B[2]~input_o $end
$var wire 1 ]! inst1|Add2~1_cout $end
$var wire 1 ^! inst1|Add2~3 $end
$var wire 1 _! inst1|Add2~5 $end
$var wire 1 `! inst1|Add2~6_combout $end
$var wire 1 a! inst1|Add1~3 $end
$var wire 1 b! inst1|Add1~5 $end
$var wire 1 c! inst1|Add1~6_combout $end
$var wire 1 d! inst1|Add0~1 $end
$var wire 1 e! inst1|Add0~3 $end
$var wire 1 f! inst1|Add0~5 $end
$var wire 1 g! inst1|Add0~6_combout $end
$var wire 1 h! inst1|Selector4~0_combout $end
$var wire 1 i! inst1|Selector4~1_combout $end
$var wire 1 j! inst1|Selector4~2_combout $end
$var wire 1 k! inst1|Selector4~3_combout $end
$var wire 1 l! inst1|Selector4~4_combout $end
$var wire 1 m! inst|Q[3]~_wirecell_combout $end
$var wire 1 n! inst1|Add4~3 $end
$var wire 1 o! inst1|Add4~4_combout $end
$var wire 1 p! A[5]~input_o $end
$var wire 1 q! inst1|Add3~3 $end
$var wire 1 r! inst1|Add3~4_combout $end
$var wire 1 s! inst1|Add1~4_combout $end
$var wire 1 t! inst1|Selector5~0_combout $end
$var wire 1 u! inst1|Selector5~1_combout $end
$var wire 1 v! inst1|Selector5~2_combout $end
$var wire 1 w! inst1|Selector5~3_combout $end
$var wire 1 x! inst1|Result[2]~feeder_combout $end
$var wire 1 y! inst|Q[2]~_wirecell_combout $end
$var wire 1 z! inst5|Mux0~0_combout $end
$var wire 1 {! inst5|Mux1~0_combout $end
$var wire 1 |! inst5|Mux2~0_combout $end
$var wire 1 }! inst5|Mux3~0_combout $end
$var wire 1 ~! inst5|Mux4~0_combout $end
$var wire 1 !" inst5|Mux5~0_combout $end
$var wire 1 "" inst5|Mux6~0_combout $end
$var wire 1 #" A[3]~input_o $end
$var wire 1 $" inst1|Add4~5 $end
$var wire 1 %" inst1|Add4~7 $end
$var wire 1 &" inst1|Add4~9 $end
$var wire 1 '" inst1|Add4~11 $end
$var wire 1 (" inst1|Add4~12_combout $end
$var wire 1 )" B[6]~input_o $end
$var wire 1 *" B[4]~input_o $end
$var wire 1 +" inst1|Add3~5 $end
$var wire 1 ," inst1|Add3~7 $end
$var wire 1 -" inst1|Add3~9 $end
$var wire 1 ." inst1|Add3~11 $end
$var wire 1 /" inst1|Add3~12_combout $end
$var wire 1 0" inst1|Add1~7 $end
$var wire 1 1" inst1|Add1~9 $end
$var wire 1 2" inst1|Add1~11 $end
$var wire 1 3" inst1|Add1~12_combout $end
$var wire 1 4" inst1|Add2~7 $end
$var wire 1 5" inst1|Add2~9 $end
$var wire 1 6" inst1|Add2~11 $end
$var wire 1 7" inst1|Add2~12_combout $end
$var wire 1 8" inst1|Selector1~0_combout $end
$var wire 1 9" inst1|Selector1~1_combout $end
$var wire 1 :" inst1|Selector1~2_combout $end
$var wire 1 ;" inst1|Selector1~3_combout $end
$var wire 1 <" inst1|Selector1~4_combout $end
$var wire 1 =" inst|Q[6]~_wirecell_combout $end
$var wire 1 >" inst1|Add4~10_combout $end
$var wire 1 ?" inst1|Add0~7 $end
$var wire 1 @" inst1|Add0~9 $end
$var wire 1 A" inst1|Add0~10_combout $end
$var wire 1 B" inst1|Add2~10_combout $end
$var wire 1 C" inst1|Selector2~0_combout $end
$var wire 1 D" inst1|Selector2~1_combout $end
$var wire 1 E" inst1|Selector2~2_combout $end
$var wire 1 F" inst1|Selector2~3_combout $end
$var wire 1 G" inst1|Selector2~4_combout $end
$var wire 1 H" inst|Q[5]~_wirecell_combout $end
$var wire 1 I" inst1|Add4~13 $end
$var wire 1 J" inst1|Add4~14_combout $end
$var wire 1 K" inst1|Add2~13 $end
$var wire 1 L" inst1|Add2~14_combout $end
$var wire 1 M" inst1|Add1~13 $end
$var wire 1 N" inst1|Add1~14_combout $end
$var wire 1 O" inst1|Add0~11 $end
$var wire 1 P" inst1|Add0~13 $end
$var wire 1 Q" inst1|Add0~14_combout $end
$var wire 1 R" inst1|Selector0~0_combout $end
$var wire 1 S" inst1|Selector0~1_combout $end
$var wire 1 T" inst1|Selector0~2_combout $end
$var wire 1 U" inst1|Selector0~3_combout $end
$var wire 1 V" inst1|Selector0~4_combout $end
$var wire 1 W" inst|Q[7]~_wirecell_combout $end
$var wire 1 X" inst1|Add3~8_combout $end
$var wire 1 Y" inst1|Add1~8_combout $end
$var wire 1 Z" inst1|Add2~8_combout $end
$var wire 1 [" inst1|Selector3~0_combout $end
$var wire 1 \" inst1|Selector3~1_combout $end
$var wire 1 ]" inst1|Selector3~2_combout $end
$var wire 1 ^" inst1|Add4~8_combout $end
$var wire 1 _" inst1|Selector3~3_combout $end
$var wire 1 `" inst1|Selector3~4_combout $end
$var wire 1 a" inst|Q[4]~_wirecell_combout $end
$var wire 1 b" inst6|Mux0~0_combout $end
$var wire 1 c" inst6|Mux1~0_combout $end
$var wire 1 d" inst6|Mux2~0_combout $end
$var wire 1 e" inst6|Mux3~0_combout $end
$var wire 1 f" inst6|Mux4~0_combout $end
$var wire 1 g" inst6|Mux5~0_combout $end
$var wire 1 h" inst6|Mux6~0_combout $end
$var wire 1 i" Clock~input_o $end
$var wire 1 j" Clock~inputclkctrl_outclk $end
$var wire 1 k" inst1|Equal0~1_combout $end
$var wire 1 l" inst1|NEG~0_combout $end
$var wire 1 m" inst1|NEG~q $end
$var wire 1 n" inst3|Selector12~0_combout $end
$var wire 1 o" inst3|WideOr15~0_combout $end
$var wire 1 p" inst3|Selector12~1_combout $end
$var wire 1 q" inst3|Selector10~0_combout $end
$var wire 1 r" inst3|Selector10~1_combout $end
$var wire 1 s" inst3|Selector11~1_combout $end
$var wire 1 t" inst3|Selector9~0_combout $end
$var wire 1 u" inst3|Selector11~0_combout $end
$var wire 1 v" inst3|Selector11~2_combout $end
$var wire 1 w" inst7|Mux0~0_combout $end
$var wire 1 x" inst7|Mux1~0_combout $end
$var wire 1 y" inst7|Mux2~0_combout $end
$var wire 1 z" inst7|Mux3~0_combout $end
$var wire 1 {" inst7|Mux4~0_combout $end
$var wire 1 |" inst7|Mux5~0_combout $end
$var wire 1 }" inst7|Mux6~0_combout $end
$var wire 1 ~" inst1|Result [7] $end
$var wire 1 !# inst1|Result [6] $end
$var wire 1 "# inst1|Result [5] $end
$var wire 1 ## inst1|Result [4] $end
$var wire 1 $# inst1|Result [3] $end
$var wire 1 %# inst1|Result [2] $end
$var wire 1 &# inst1|Result [1] $end
$var wire 1 '# inst1|Result [0] $end
$var wire 1 (# inst4|Q [7] $end
$var wire 1 )# inst4|Q [6] $end
$var wire 1 *# inst4|Q [5] $end
$var wire 1 +# inst4|Q [4] $end
$var wire 1 ,# inst4|Q [3] $end
$var wire 1 -# inst4|Q [2] $end
$var wire 1 .# inst4|Q [1] $end
$var wire 1 /# inst4|Q [0] $end
$var wire 1 0# inst|Q [7] $end
$var wire 1 1# inst|Q [6] $end
$var wire 1 2# inst|Q [5] $end
$var wire 1 3# inst|Q [4] $end
$var wire 1 4# inst|Q [3] $end
$var wire 1 5# inst|Q [2] $end
$var wire 1 6# inst|Q [1] $end
$var wire 1 7# inst|Q [0] $end
$upscope $end
$upscope $end
$enddefinitions $end
#0
$dumpvars
b10010110 !
b110110 "
0#
1$
1%
0&
1'
1(
0/
1.
1-
1,
1+
1*
1)
06
15
14
13
12
11
10
0=
0<
0;
0:
09
08
07
1D
1C
0B
1A
1@
0?
1>
xE
0F
1G
xH
1I
1J
1K
0L
1M
0N
0O
0P
0Q
1R
0S
0T
1U
0V
0W
0X
1Y
0Z
1[
1\
1]
1^
1_
1`
0a
1b
1c
1d
1e
1f
1g
0h
0i
0j
0k
0l
0m
0n
0o
1p
0q
1r
1s
0t
1u
1v
1w
1x
1y
0z
1{
1|
1}
1~
0!!
0"!
1#!
0$!
0%!
0&!
0'!
0(!
1)!
0*!
1+!
0,!
0-!
0.!
0/!
00!
01!
02!
13!
04!
05!
16!
07!
18!
09!
0:!
1;!
1<!
0=!
1>!
0?!
1@!
0A!
1B!
0C!
1D!
0E!
0F!
0G!
0H!
0I!
0J!
0K!
0L!
1M!
1N!
1O!
1P!
1Q!
0R!
0S!
0T!
0U!
0V!
0W!
1X!
0Y!
0Z!
0[!
1\!
1]!
0^!
1_!
0`!
0a!
1b!
0c!
1d!
0e!
1f!
0g!
0h!
0i!
0j!
0k!
0l!
1m!
1n!
0o!
0p!
1q!
0r!
0s!
0t!
0u!
0v!
0w!
0x!
1y!
0z!
0{!
0|!
0}!
0~!
0!"
0""
0#"
0$"
1%"
0&"
1'"
0("
0)"
1*"
0+"
1,"
0-"
1."
1/"
00"
11"
02"
03"
04"
15"
06"
07"
08"
09"
0:"
0;"
0<"
1="
0>"
0?"
1@"
0A"
0B"
0C"
0D"
0E"
0F"
0G"
1H"
0I"
0J"
1K"
0L"
1M"
0N"
0O"
1P"
0Q"
0R"
0S"
0T"
0U"
0V"
1W"
1X"
0Y"
0Z"
0["
0\"
0]"
0^"
0_"
0`"
1a"
0b"
0c"
0d"
0e"
0f"
0g"
0h"
0i"
0j"
1k"
1l"
0m"
0n"
1o"
1p"
1q"
1r"
0s"
0t"
0u"
0v"
0w"
1x"
0y"
0z"
1{"
0|"
1}"
0'#
0&#
0%#
0$#
0##
0"#
0!#
0~"
0/#
0.#
0-#
0,#
0+#
0*#
0)#
0(#
07#
06#
05#
04#
03#
02#
01#
00#
$end
#40000
1#
1i"
1j"
0E
13#
15#
1(#
1-#
1+#
12#
1,!
1*!
16#
1.#
1m"
0a"
05"
1Z"
1-"
0X"
0y!
1r!
0_!
1Q
1Q"
1N"
1J"
1F!
1o!
1^"
0H"
1O"
1A"
16"
1B"
1V
0."
0U
14!
0q"
0p"
0+!
0M!
0q!
03!
1^!
1N
0n!
0{
1o
1=
0B"
1U
14"
1`!
1R"
0l"
0P"
1W
0K"
17"
1C"
1X
0/"
06!
0r"
1z"
0x"
1w"
1+"
0r!
0Q
1$"
0o!
0C"
1D"
0Z"
1i!
1S"
0Q"
1L"
18"
0Y
0k"
1["
0R"
1I!
0{"
0z"
0w"
0,"
0R
1S
0s
1q
0p
0A
1?
0>
0}"
0D"
1E"
0["
1j!
1T"
19"
1l"
1\"
1J!
1X"
1t
1s
1p
0v
1B
1A
1>
0D
0E"
1F"
0\"
1k!
1U"
1:"
1]"
1K!
0F"
1G"
0]"
1l!
1V"
1;"
1_"
1L!
0G"
0_"
1<"
1`"
0`"
#60000
1&
1!!
1"!
1E
0*!
0,!
1q"
1p"
1+!
04!
1r"
1|"
1{"
1z"
1w"
1G!
16!
0|"
0z"
1x"
0w"
1D"
1C"
09"
08"
1k"
0S"
0i!
0I!
0u
0t
0s
0p
0C
0B
0A
0>
1}"
1E"
0:"
19"
0l"
0T"
0j!
0J!
1u
1s
0q
1p
1v
1C
1A
0?
1>
1D
1F"
0;"
1:"
0U"
0k!
0K!
1G"
0<"
1;"
0V"
0l!
0L!
1<"
#80000
0#
0&
0i"
0!!
0j"
0"!
0E
#120000
1#
1i"
1j"
1E
1"#
1!#
1,!
1*!
0m"
1c"
14!
0q"
0p"
0+!
0o
0=
1h"
0G!
06!
0r"
1z"
0x"
1w"
0c
1h
01
16
0C"
09"
18"
0k"
1S"
1i!
1I!
0{"
0z"
0w"
0s
1q
0p
0A
1?
0>
0}"
0D"
0:"
19"
1T"
1j!
1J!
1t
1s
1p
0v
1B
1A
1>
0D
0E"
0;"
1:"
1U"
1k!
1K!
0F"
0<"
1;"
1V"
1l!
1L!
0G"
1<"
#160000
0#
0i"
0j"
0E
#200000
1#
1i"
1j"
1E
1~"
0"#
1$#
1&#
1-!
0,!
1d"
1}!
1n"
1/!
04!
0h"
1""
1Z!
0J!
1G!
16!
0d
0^
0h
1a
02
0,
06
1/
1_"
0;"
0:"
1w!
0j!
1D"
1C"
09"
08"
0S"
0i!
0I!
1`"
0<"
1x!
0k!
19"
0l!
#240000
0#
0i"
0j"
0E
#280000
1#
1i"
1j"
1E
1##
0!#
1%#
0$#
1.!
0-!
1f"
1e"
0d"
0c"
0}!
1{!
1s"
0o"
14!
0n"
1h"
1t"
1p"
0O!
0G!
06!
0f
0e
1d
1c
1^
0\
1h
04
03
12
11
1,
0*
16
1{"
1z"
0C"
09"
18"
1S"
1i!
1I!
1}"
0D"
19"
0t
0s
1v
0B
0A
1D
#320000
0#
0i"
0j"
0E
#360000
1#
1i"
1j"
1E
0.!
1$!
0s"
1o"
04!
0/!
1u"
1q"
1n"
15!
1v"
0t"
1r"
0p"
0Z!
1O!
1G!
1J!
0{"
0z"
1x"
0_"
1:"
0w!
1j!
1["
1R"
1D"
09"
1t!
1h!
1R!
1H!
0`"
1;"
0x!
1k!
1\"
0S"
1E"
0:"
0i!
1T!
0I!
1t
1s
0q
1B
1A
0?
1<"
1l!
1]"
0T"
1F"
0;"
0j!
1U!
0J!
1_"
0U"
1G"
0<"
0k!
1V!
0K!
1`"
0V"
0l!
1W!
0L!
#400000
0#
0i"
0j"
0E
#440000
1#
1i"
1j"
1E
0~"
1"#
0%#
1'#
0&#
1%!
0$!
1g"
0e"
1!"
1~!
1}!
0{!
1z!
1s"
0o"
14!
0u"
0q"
0n"
0""
0v"
1t"
0r"
1p"
1Y!
1Z
0g
1e
0`
0_
0^
1\
0[
0a
05
13
0.
0-
0,
1*
0)
0/
1{"
1z"
0x"
0`"
1<"
1l!
0t
0s
1q
0B
0A
1?
#480000
0#
0i"
0j"
0E
#520000
1#
1i"
1j"
1E
0##
1!#
1$#
1&!
0%!
0g"
0f"
1c"
0!"
0z!
1u"
1q"
1n"
1/!
0s"
1o"
04!
1""
1v"
1r"
0p"
1v!
1[!
0Y!
1J!
0t"
1g
1f
0c
1`
1[
1a
15
14
01
1.
1)
1/
0{"
0z"
1x"
1w!
1U"
0F"
0E"
1`"
0<"
0l!
1K!
1x!
1V"
0G"
1F"
1L!
1t
1s
0q
1B
1A
0?
1G"
#560000
0#
0i"
0j"
0E
#600000
1#
1i"
1j"
1E
1##
1~"
0!#
1%#
0$#
1&#
1'!
0&!
1b"
1!"
0o"
14!
0u"
0q"
0n"
0""
0r"
1p"
1Z!
0b
0`
0a
00
0.
0/
1|"
1{"
0x"
1T"
1E"
1:"
0w!
1j!
0K!
0F"
0x!
1k!
0L!
0u
0t
1q
0C
0B
1?
0G"
1l!
#640000
0#
0i"
0j"
0E
#680000
1#
1i"
1j"
1E
0"#
0%#
1$#
0&#
1(!
0'!
1f"
1e"
0c"
0b"
0!"
1u"
1r"
1n"
0)!
0v"
1o"
05!
04!
0/!
1""
1v"
0|"
1x"
0p"
0[!
0Z!
16!
0Z
0v!
0J!
0f
0e
1c
1b
1`
1a
04
03
11
10
1.
1/
0{"
0T"
1F"
0:"
0j!
1;"
0["
1S"
0R"
1C"
08"
0t!
1i!
0h!
0R!
1I!
0H!
1u
0q
1C
0?
0U"
1G"
0;"
0k!
1<"
0\"
1T"
0S"
19"
1j!
0i!
0T!
1J!
0I!
1t
1B
0V"
0<"
0l!
0]"
1U"
0T"
1:"
1k!
0j!
0U!
1K!
0J!
0_"
1V"
0U"
1;"
1l!
0k!
0V!
1L!
0K!
0`"
0V"
1<"
0l!
0W!
0L!
#720000
0#
0i"
0j"
0E
#760000
1#
1i"
1j"
1E
0##
1!#
0*!
0(!
0f"
0e"
1d"
1c"
1q"
1p"
1+!
0u"
0r"
0n"
1k"
1)!
0h"
1r"
1|"
1{"
0x"
0v"
1f
1e
0d
0c
0h
14
13
02
01
06
0|"
1x"
0u
0t
1q
0C
0B
1?
1u
0q
1C
0?
#800000
0#
0i"
0j"
0E
#840000
1#
1i"
1j"
1E
0~"
1"#
0$#
0'#
1,!
1*!
0d"
0~!
0}!
14!
0q"
0p"
0+!
1h"
0""
0G!
06!
0r"
1z"
0x"
1w"
1d
1_
1^
1h
0a
12
1-
1,
16
0/
0C"
09"
18"
0k"
1S"
1i!
1I!
0{"
0z"
0w"
0s
1q
0p
0A
1?
0>
0}"
0D"
0:"
19"
1T"
1j!
1J!
1t
1s
1p
0v
1B
1A
1>
0D
0E"
0;"
1:"
1U"
1k!
1K!
0F"
0<"
1;"
1V"
1l!
1L!
0G"
1<"
#880000
0#
0i"
0j"
0E
#920000
1#
1i"
1j"
1E
1~"
0"#
1$#
1&#
1-!
0,!
1d"
1}!
1n"
1/!
04!
0h"
1""
1Z!
0J!
1G!
16!
0d
0^
0h
1a
02
0,
06
1/
1_"
0;"
0:"
1w!
0j!
1D"
1C"
09"
08"
0S"
0i!
0I!
1`"
0<"
1x!
0k!
19"
0l!
#960000
0#
0i"
0j"
0E
